{
    "server": "0.0.0.0",
    "server_ipv6": "[::]",
    "local_address": "127.0.0.1",
    "local_port": 1080,
    "port_password": {
        "80": {
            "password": "password",
            "protocol": "auth_sha1_v4",
            "protocol_param": "",
            "obfs": "http_simple",
            "obfs_param": ""
        },
        "443": {
            "password": "password",
            "protocol": "auth_sha1_v4",
            "protocol_param": "",
            "obfs": "tls1.2_ticket_auth",
            "obfs_param": ""
        },
        "1234": {
            "password": "password"
        }
    },
    "timeout": 300,
    "method": "aes-256-cfb",
    "protocol": "origin",
    "protocol_param": "",
    "obfs": "plain",
    "obfs_param": "",
    "redirect": "",
    "dns_ipv6": true,
    "fast_open": false,
    "workers": 5
}